{
  "Line": [
    {
      "Id": "0",
      "Description": "Payable",
      "Amount": %s,
      "DetailType": "JournalEntryLineDetail",
      "JournalEntryLineDetail": {
        "PostingType": "Debit",
        "Entity": {
          "Type": "Vendor",
          "EntityRef": {
            "value": "58",
            "name": "Bongloy"
          }
        },
        "AccountRef": {
          "value": "91",
          "name": "Bongloy Payable (JAYA)"
        }
      }
    },
    {
      "Id": "1",
      "Description": "Fee for portal",
      "Amount": %s,
      "DetailType": "JournalEntryLineDetail",
      "JournalEntryLineDetail": {
        "PostingType": "Debit",
        "Entity": {
          "Type": "Vendor",
          "EntityRef": {
            "value": "58",
            "name": "Bongloy"
          }
        },
        "AccountRef": {
          "value": "92",
          "name": "Fee expense to Bongloy (JAYA)"
        }
      }
    },
    {
      "Id": "3",
      "Description": "Paid from Bongloy partal QR",
      "Amount": %s,
      "DetailType": "JournalEntryLineDetail",
      "JournalEntryLineDetail": {
        "PostingType": "Credit",
        "Entity": {
          "Type": "Vendor",
          "EntityRef": {
            "value": "58",
            "name": "Bongloy"
          }
        },
        "AccountRef": {
          "value": "93",
          "name": "Sale income (JAYA)"
        }
      }
    }
  ]
}